%YAML 1.1
%TAG !u! tag:unity3d.com,2011:
--- !u!21 &2100000
Material:
  serializedVersion: 6
  m_ObjectHideFlags: 0
  m_PrefabParentObject: {fileID: 0}
  m_PrefabInternal: {fileID: 0}
  m_Name: Arm_Armor
  m_Shader: {fileID: 4800000, guid: 36fc365dd5183b64aafffc39969a4673, type: 3}
  m_ShaderKeywords: _OUTL_ON
  m_LightmapFlags: 5
  m_EnableInstancingVariants: 0
  m_DoubleSidedGI: 0
  m_CustomRenderQueue: -1
  stringTagMap: {}
  disabledShaderPasses: []
  m_SavedProperties:
    serializedVersion: 3
    m_TexEnvs:
    - _BumpMap:
        m_Texture: {fileID: 2800000, guid: beeab75332b5b2f4cbe42a5e52ac8a9d, type: 3}
        m_Scale: {x: 1, y: 1}
        m_Offset: {x: 0, y: 0}
    - _Cube:
        m_Texture: {fileID: 0}
        m_Scale: {x: 1, y: 1}
        m_Offset: {x: 0, y: 0}
    - _Illum:
        m_Texture: {fileID: 2800000, guid: c9cd7c858b8c6e34497d50cba5f3134d, type: 3}
        m_Scale: {x: 1, y: 1}
        m_Offset: {x: 0, y: 0}
    - _MainTex:
        m_Texture: {fileID: 2800000, guid: 70e30695b58ba2c4d84af520403fb6da, type: 3}
        m_Scale: {x: 1, y: 1}
        m_Offset: {x: 0, y: 0}
    - _Ramp:
        m_Texture: {fileID: 2800000, guid: 4a056241e2722dc46a7262a8e7073fd9, type: 3}
        m_Scale: {x: 1, y: 1}
        m_Offset: {x: 0, y: 0}
    - _ToonShade:
        m_Texture: {fileID: 8900000, guid: df5540b18d63cd145a20cabef9adf95b, type: 3}
        m_Scale: {x: 1, y: 1}
        m_Offset: {x: 0, y: 0}
    m_Floats:
    - _Asym: 0
    - _Brightness: 1
    - _Cull: 2
    - _Cutoff: 0.5
    - _DS: 0
    - _DetailTex: 0
    - _EmissionLM: 0
    - _Outl: 1
    - _Outline: 0.002
    - _Shininess: 0.27515748
    - _TintColor: 0
    - _TrOp: 0
    - _Trans: 0
    - _VertexColor: 0
    m_Colors:
    - _Asymmetry: {r: 0, g: 0.25, b: 0.5, a: 0}
    - _Color: {r: 0.7205882, g: 0.56668884, b: 0.40798008, a: 1}
    - _OutlineColor: {r: 0, g: 0, b: 0, a: 1}
    - _ReflectColor: {r: 0.2647059, g: 0.2126775, b: 0.16544119, a: 0.5019608}
    - _SpecColor: {r: 0.24264705, g: 0.20573321, b: 0.10883434, a: 1}
--- !u!1002 &2100001
EditorExtensionImpl:
  serializedVersion: 6
